%YAML 1.1
%TAG !u! tag:unity3d.com,2011:
--- !u!114 &11400000
MonoBehaviour:
  m_ObjectHideFlags: 0
  m_CorrespondingSourceObject: {fileID: 0}
  m_PrefabInternal: {fileID: 0}
  m_GameObject: {fileID: 0}
  m_Enabled: 1
  m_EditorHideFlags: 0
  m_Script: {fileID: 11500000, guid: bbb281ee3bf0b054c82ac2347e9e782c, type: 3}
  m_Name: Audio
  m_EditorClassIdentifier: 
  m_name: Audio
  m_data:
    m_serializedData: []
  m_guid: c7cc88b69dc163b4886deeddd3c3f406
  m_serializeEntries:
  - m_guid: 40ed8c32308b59447bebbd173fd5ba0d
    m_address: SpaceJam
    m_readOnly: 0
    m_serializedLabels:
    - PlayList
  - m_guid: 8aca5be5dba38a64fa16be79f211b106
    m_address: EngineStart
    m_readOnly: 0
    m_serializedLabels: []
  m_readOnly: 0
  m_settings: {fileID: 11400000, guid: b48344130086a144eba6b6222e40599a, type: 2}
  m_schemaSet:
    m_schemas:
    - {fileID: 11400000, guid: be82a31adde64e147931e23cbbbd6be2, type: 2}
    - {fileID: 11400000, guid: 214a8326ba620bd4f9095da0a086ef98, type: 2}
