%YAML 1.1
%TAG !u! tag:unity3d.com,2011:
--- !u!114 &11400000
MonoBehaviour:
  m_ObjectHideFlags: 0
  m_CorrespondingSourceObject: {fileID: 0}
  m_PrefabInternal: {fileID: 0}
  m_GameObject: {fileID: 0}
  m_Enabled: 1
  m_EditorHideFlags: 0
  m_Script: {fileID: 11500000, guid: bbb281ee3bf0b054c82ac2347e9e782c, type: 3}
  m_Name: Spacecraft
  m_EditorClassIdentifier: 
  m_name: Spacecraft
  m_data:
    m_serializedData: []
  m_guid: 1b0100c852437774b8601eedb3c351e6
  m_serializeEntries:
  - m_guid: 4b830fed9a1a6c44ab900a541adca282
    m_address: Droid
    m_readOnly: 0
    m_serializedLabels:
    - Wave01
  - m_guid: 648ca3e48c66a694aac279fdb6e2e46e
    m_address: Asteroid
    m_readOnly: 0
    m_serializedLabels:
    - Wave01
    - Wave02
  - m_guid: 720f1e09ebaaff54283c347115ea677b
    m_address: Star
    m_readOnly: 0
    m_serializedLabels: []
  - m_guid: a8584766c4e79334cae3fdafbecb67a7
    m_address: DefaultWeapon
    m_readOnly: 0
    m_serializedLabels: []
  - m_guid: b0f9e48dd850b15488c5bd24399954a7
    m_address: Projectile
    m_readOnly: 0
    m_serializedLabels: []
  - m_guid: e34ac4a8747638a4cabf27b4f6ae2a3c
    m_address: PlayerShip
    m_readOnly: 0
    m_serializedLabels: []
  m_readOnly: 0
  m_settings: {fileID: 11400000, guid: b48344130086a144eba6b6222e40599a, type: 2}
  m_schemaSet:
    m_schemas:
    - {fileID: 11400000, guid: 8b5c8d8d922452d48956b2656c33ab61, type: 2}
    - {fileID: 11400000, guid: 8fe147004b74be843a132e47cda4ebe8, type: 2}
