%YAML 1.1
%TAG !u! tag:unity3d.com,2011:
--- !u!114 &11400000
MonoBehaviour:
  m_ObjectHideFlags: 0
  m_CorrespondingSourceObject: {fileID: 0}
  m_PrefabInternal: {fileID: 0}
  m_GameObject: {fileID: 0}
  m_Enabled: 1
  m_EditorHideFlags: 0
  m_Script: {fileID: 11500000, guid: bbb281ee3bf0b054c82ac2347e9e782c, type: 3}
  m_Name: Waves
  m_EditorClassIdentifier: 
  m_name: Waves
  m_data:
    m_serializedData: []
  m_guid: 0b36380e61db5f64297339860bac4244
  m_serializeEntries:
  - m_guid: 5e3834ddb82964c4ebf61766bc094671
    m_address: Asteroids
    m_readOnly: 0
    m_serializedLabels:
    - Waves
    - Level02
  - m_guid: 69ee5536c502ae44fb701e702b5fd780
    m_address: Random
    m_readOnly: 0
    m_serializedLabels:
    - Waves
    - Level01
  m_readOnly: 0
  m_settings: {fileID: 11400000, guid: b48344130086a144eba6b6222e40599a, type: 2}
  m_schemaSet:
    m_schemas:
    - {fileID: 11400000, guid: 98ac04b8ad5ec3c459222e12dc470c29, type: 2}
    - {fileID: 11400000, guid: 28dc6578b502ce84da90233e5930bba3, type: 2}
