%YAML 1.1
%TAG !u! tag:unity3d.com,2011:
--- !u!114 &11400000
MonoBehaviour:
  m_ObjectHideFlags: 0
  m_CorrespondingSourceObject: {fileID: 0}
  m_PrefabInternal: {fileID: 0}
  m_GameObject: {fileID: 0}
  m_Enabled: 1
  m_EditorHideFlags: 0
  m_Script: {fileID: 11500000, guid: e5d17a21594effb4e9591490b009e7aa, type: 3}
  m_Name: 295cc653fd52a9343a606198becb1ac6_BundledAssetGroupSchema
  m_EditorClassIdentifier: 
  m_group: {fileID: 0}
  m_useAssetBundleCache: 1
  m_timeout: 0
  m_chunkedTransfer: 0
  m_redirectLimit: -1
  m_retryCount: 0
  m_buildPath:
    m_id: 
  m_loadPath:
    m_id: 
  m_bundleMode: 0
  m_assetBundleProviderType:
    m_assemblyName: 
    m_className: 
