%YAML 1.1
%TAG !u! tag:unity3d.com,2011:
--- !u!114 &11400000
MonoBehaviour:
  m_ObjectHideFlags: 0
  m_CorrespondingSourceObject: {fileID: 0}
  m_PrefabInternal: {fileID: 0}
  m_GameObject: {fileID: 0}
  m_Enabled: 1
  m_EditorHideFlags: 0
  m_Script: {fileID: 11500000, guid: e5d17a21594effb4e9591490b009e7aa, type: 3}
  m_Name: d1dc23199f33a9947a22bc4ff01ddd53_BundledAssetGroupSchema
  m_EditorClassIdentifier: 
  m_group: {fileID: 11400000, guid: f48dc568c34745c499fce9ab1c2103e7, type: 2}
  m_useAssetBundleCache: 1
  m_timeout: 0
  m_chunkedTransfer: 0
  m_redirectLimit: -1
  m_retryCount: 0
  m_buildPath:
    m_id: 3f14d90ba55ee5e4cbb69672bc609ec6
  m_loadPath:
    m_id: b5321039859828c4f91184afbbcbbe0c
  m_bundleMode: 0
  m_assetBundleProviderType:
    m_assemblyName: Unity.ResourceManager, Version=0.0.0.0, Culture=neutral, PublicKeyToken=null
    m_className: UnityEngine.ResourceManagement.AssetBundleProvider
