%YAML 1.1
%TAG !u! tag:unity3d.com,2011:
--- !u!114 &11400000
MonoBehaviour:
  m_ObjectHideFlags: 0
  m_CorrespondingSourceObject: {fileID: 0}
  m_PrefabInternal: {fileID: 0}
  m_GameObject: {fileID: 0}
  m_Enabled: 1
  m_EditorHideFlags: 0
  m_Script: {fileID: 11500000, guid: 5834b5087d578d24c926ce20cd31e6d6, type: 3}
  m_Name: d1dc23199f33a9947a22bc4ff01ddd53_ContentUpdateGroupSchema
  m_EditorClassIdentifier: 
  m_group: {fileID: 0}
  m_staticContent: 0
