%YAML 1.1
%TAG !u! tag:unity3d.com,2011:
--- !u!1045 &1
EditorBuildSettings:
  m_ObjectHideFlags: 0
  serializedVersion: 2
  m_Scenes:
  - enabled: 1
    path: Assets/_Scenes/MenuScene.unity
    guid: 80029c42025e46d48b98740036ed485d
  - enabled: 1
    path: Assets/_Scenes/PlayScene.unity
    guid: ec185fd099a22a34d90aee7028825c92
  m_configObjects:
    com.unity.addressableassets: {fileID: 11400000, guid: ddc0b4f4e47414547bcc2264c10200f0,
      type: 2}
