%YAML 1.1
%TAG !u! tag:unity3d.com,2011:
--- !u!114 &11400000
MonoBehaviour:
  m_ObjectHideFlags: 0
  m_CorrespondingSourceObject: {fileID: 0}
  m_PrefabInternal: {fileID: 0}
  m_GameObject: {fileID: 0}
  m_Enabled: 1
  m_EditorHideFlags: 0
  m_Script: {fileID: 11500000, guid: 468a46d0ae32c3544b7d98094e6448a9, type: 3}
  m_Name: AddressableAssetSettings
  m_EditorClassIdentifier: 
  m_defaultGroup: d1dc23199f33a9947a22bc4ff01ddd53
  m_assetsModified: 1
  m_groups: []
  m_groupAssets:
  - {fileID: 11400000, guid: f5735a9c09233cd4dbf91f27091d8ecc, type: 2}
  - {fileID: 11400000, guid: f48dc568c34745c499fce9ab1c2103e7, type: 2}
  - {fileID: 11400000, guid: 997172b81d73dbf4a8f794aaf504d478, type: 2}
  - {fileID: 11400000, guid: 019da2566782ba24a979cb1459c4c29b, type: 2}
  - {fileID: 11400000, guid: b255649a7b0318e42ad2170ff178d7fd, type: 2}
  - {fileID: 11400000, guid: 0c6db113f7e69734297179024fed581c, type: 2}
  m_buildSettings:
    m_compression:
      compression: 3
      level: 5
      blockSize: 131072
    m_compileScriptsInVirtualMode: 0
    m_cleanupStreamingAssetsAfterBuilds: 1
    m_logResourceManagerExceptions: 1
    m_bundleBuildPath: Temp/com.unity.addressables/AssetBundles
  m_profileSettings:
    m_profiles:
    - m_inheritedParent: 
      m_id: 8b20bbd2447b0944b9848d847e0f3393
      m_profileName: Default
      m_values:
      - m_id: fcdbc95586170ec409d7fe022869a1eb
        m_value: '[UnityEditor.EditorUserBuildSettings.activeBuildTarget]'
      - m_id: 3f14d90ba55ee5e4cbb69672bc609ec6
        m_value: Assets/StreamingAssets/com.unity.addressables/[BuildTarget]
      - m_id: b5321039859828c4f91184afbbcbbe0c
        m_value: '{UnityEngine.AddressableAssets.Addressables.RuntimePath}/[BuildTarget]'
      - m_id: 54e2218eac0fec74794755a6975355d9
        m_value: ServerData/[BuildTarget]
      - m_id: dbfae4623fecfd74e90a20e32c5e0741
        m_value: http://localhost/[BuildTarget]
    m_profileEntryNames:
    - m_id: fcdbc95586170ec409d7fe022869a1eb
      m_name: BuildTarget
      m_inlineUsage: 0
    - m_id: 3f14d90ba55ee5e4cbb69672bc609ec6
      m_name: LocalBuildPath
      m_inlineUsage: 0
    - m_id: b5321039859828c4f91184afbbcbbe0c
      m_name: LocalLoadPath
      m_inlineUsage: 0
    - m_id: 54e2218eac0fec74794755a6975355d9
      m_name: RemoteBuildPath
      m_inlineUsage: 0
    - m_id: dbfae4623fecfd74e90a20e32c5e0741
      m_name: RemoteLoadPath
      m_inlineUsage: 0
    m_profileVersion: 1
  m_labelTable:
    m_labelNames:
    - default
    - PlayList
    - Levels
    - Level01
    - Level02
    - Wave01
    - Wave02
  m_schemaTemplates:
  - m_displayName: Packed Assets
    m_description: Pack asset sinto asset bundles.
    m_schemaTypes:
    - m_assemblyName: Unity.Addressables.Editor, Version=0.0.0.0, Culture=neutral,
        PublicKeyToken=null
      m_className: UnityEditor.AddressableAssets.BundledAssetGroupSchema
    - m_assemblyName: Unity.Addressables.Editor, Version=0.0.0.0, Culture=neutral,
        PublicKeyToken=null
      m_className: UnityEditor.AddressableAssets.ContentUpdateGroupSchema
  m_initializationObjects: []
  m_activePlayerDataBuilderIndex: 2
  m_activePlayModeDataBuilderIndex: 1
  m_dataBuilders:
  - {fileID: 11400000, guid: 5d1200813de50a64fbccb7b9fa207a20, type: 2}
  - {fileID: 11400000, guid: 4e03d2a4cb4a5ff49873e546a7529647, type: 2}
  - {fileID: 11400000, guid: f1f15ba19426425458eb6899e72e5600, type: 2}
  m_activeProfileId: 8b20bbd2447b0944b9848d847e0f3393
  m_hostingServicesManager:
    m_hostingServiceInfos: []
    m_settings: {fileID: 11400000}
    m_nextInstanceId: 0
    m_registeredServiceTypeRefs: []
